31905, 4000000000, SP2RS9ETEB643MQWX25771YKXRAZRG0NGK4RQWDYG, 8963972
31905, 6425000000, SP14VQZ21G8E8P6J2YRKDY082HYZQDQEZDD21115A, 14398380
31905, 10000000000, SP2HCRHTXSTBFD039S6C7C9R3XXYT3AWJ14ZDZ6AG, 22409930
31901, 1061000000, SP222A8XAM81EF2ZZQ0RKNDR7VVHH7Q8XT85CH0VJ, 2377694
31901, 9696000000, SP1F08G43V43PM4TRVJZGN25BRJYHPKHJ05MMT702, 21728668
31901, 3915070421, SP3MZ7H88AMDE6BN245TRGFG80TYXBXJS6BZC939P, 8773645
31901, 3325906805, SP3XBDJ3GFXM4Z8V9A45CSTA4B6J97XP0XMMCDKZ1, 7453334
31901, 100000000, SP2RSAY7BE1BBS8RK790PW912V0HW6HPQ2NVN9NK7, 224099
31901, 347969914, SP2Z9J2EWW2GVVABK4ZJE9217WB5KJ11T6WHQ027, 779798
31897, 2103251, SP19G9WQRD1339RZJG6VNYWB15XV8FFS1JKEVR02P, 4713
31897, 24916486671, SP3N9YCF8QA4365WRDP328M7SHWP00ZKX2G06R553, 55837672
31897, 10333465284, SPE2CZE4YMD638RXN0YHC1KFFN98JN23N7645NWC, 23157223
31897, 159467000, SP2DDWM6XF1JGGQP3Z3DJ133T4WVZZ3VVD9V5V2JF, 357364
31897, 14909065780, SP3WNYR6YD1YHGEJ5P6BS6Z1P91HNCYXQ5WGWMXRA, 33411112
31897, 102520000, SP2P8T691BF1QP0EQJN851PFTX8G574SDEWQ316JD, 229747
31897, 1300000000, SP1G32VX0G5Z3A67XYQR2VWFJ6DKZ7XGD9QRHFEMJ, 2913291
31897, 86128551, SP1H89WC043MQYRAVRT5WNJQB2RYT1MJK6FNZRAA9, 193013
31897, 450000000, SP2S0948DSAHCG5J5P2CF5WRW6V1BNJFS7XFRA5ZN, 1008447
31897, 549974826, SP21AAGC12RHADK7YRARRBZG4MKZE5NYCCRFQQHZW, 1232490
31897, 20400000000, SP2D6YQGFA525N9D4K45XMT3MWEPN69VQ048JRN6V, 45716257
31897, 239917484, SP3RDDRG118N8NP1M3PCDV7GNCTSGM08HMG0NMT18, 537653
31897, 23958246934, SP3RMG8BC8QPB1B0JCNGK01R8TWBJ32YBZ81B8EGY, 53690263
31897, 20000000000, SP1YT9M182DVK1VEZ66490TYFN7XMAD0Z9XX8JCPW, 44819860
31897, 14080000000, SP2JBZAZZEXKVZF9XWZ5FGS6BHFA4SC13E69EHFVT, 31553181
31897, 14900000000, SPVX6QNDK0KG2QYPAN4WC2P0MG8SXV0EVQQ8ZEWS, 33390795
31897, 3900000000, SPXN4THK2N60AC2AWQ4N7NAQ1EMTCESX30X19R76, 8739873
31897, 1700000000, SP29BSG7A2R7M9KA6FCHBCWPSX9WXVDY4FATDCRY2, 3809688
31897, 468250000, SP3RVD6FMPEWN79JA3ZXA2XG8NHB12YEVGCDXB9GX, 1049345
31897, 257750900, SP1RW26AHWCMHS21T3AZ6HVSQGNVMHZY8H1VSAQMC, 577618
31897, 20009000000, SP2NWGMBV60XJRMTCDBCSE5C6AZWT1RYP1FT192E8, 44840029
31897, 3455999500, SP29M8K1E5TRG6MVKYC5MT6QDN9AWY7DQ82EM1AS, 7744871
31897, 111000000, SP26C5BYEMVKYZ6F73BRWXTXDR0PKKNW6YXBSJ032, 248750
31896, 282945000000, SP1WSVW2RMFTYQ2GEYFWM748T6XCHFSFM2965RP26, 634077760
31895, 15000000000, SP1YYH0AWRNX1KCSMR16P35641B9XRPH5H7ZSMQFB, 33614895
31894, 637609700, SP13CVRW0SDNK2HBG121BXGQ74HWM0CZ4AX0N5HGR, 1428879
31894, 25701759136, SP1FKQBT65X7Z6MYASAJ4H2YBFMWSE4FCRBTD64GR, 57597462
31893, 600000000, SP37SJ9A2JRQ92YGTC6AK6362YCG31HVFEYJSQM73, 1344596
31893, 9999000000, SP1BG56DGHRKCCQW5YE857JCMS97YFS0PEVWNJZB7, 22407689
31892, 101000000, SP2JHNHQJ25VCD18EYWFG7EEQ5B3S2WTQQAP98QY0, 226340
31892, 499000000, SP1F4NFM0JTZNMGSBYJ7FAQW1G2AANTQEEQXT7DMX, 1118255
31892, 127356282, SP31H0WM99Q64MNDJFPHS12W3TFYZNAST4QBS3P20, 285405
31891, 815181000, SP11FJKWFGZNHAJNW9V0W0H060BCCTH42R1GH1FJM, 1826815
31891, 8283181563, SP19QC5FV0E94VS5NSY27CY4K2E1ERFPCTETT9XRM, 18562552
31890, 36956995437, SP3HC0EGZVD11ZQ3J5XCCEK7KCC1JG042XCZGE330, 82820367
31890, 1354726698, SP177JHCWZMGA3WHNF6GEMT32Q163S1MCK4NVNHPV, 3035933
31889, 433239619, SPFBRN5J8M8GAGZ04KBPNK6WV10NRNMA4F8X0S7R, 970887
31889, 6510170500, SPXEWV8F500APDQYYXYMY3ZZ9HN5D3NVVBPJBYZT, 14589246
31885, 104000000, SP79JMAGQVWMVWRXG2AE5GF8Z27VF1W4KZ3J03WG, 233063
31885, 6033121, SP1A967GSS8V1HCGQWTWDHFRQP51K1Z7S8CA4YJYR, 13520
31884, 78313038870, SPN0JJGCSQH7E8CFFJVXQPPK5JRCE4AW4VHXWH7Q, 175498971
31884, 126589007, SP16AD227F5E1CZW5RV2P2486QWRJ9YZHC1YC91HN, 283685
31884, 3750000000, SP1JAEZK28MB2HKN9S0J0XQHKPEDFFDNEQQ88GV3J, 8403724
31883, 319000000, SP2AYX0GWJNGD30RPF6Q4R6DQ1RK95KP4X68AXWFR, 714877
31883, 1018554467, SP5MGP6F3MNGZXZV91ZWARKHYZ84GD16DNTPTV02, 2282573
31883, 127975000000, SP2HHYDBYM5A8ZWTJ8XNXYXWCHDDFTQE8KCZMG0C1, 286791077
31883, 1000263247, SP1D689AY8RYSFE2CXZEVS02HGXA8FEB1MJRREZSJ, 2241583
31883, 3000982000, SP1S2F20VGWTMRYR0DQBD7CX1S3T8WFAKFA9JC8NA, 6725180
31877, 1400945179, SP1CMQEFW3QSJDYWFH3SG0K874CM2QDGEM5A9V1XC, 3139508
31877, 750000000, SPJNENCDWEFTK62S668JM3WNTVNESWB9TB1KE0NC, 1680745
31877, 1629063600, SP095PYRGCA1NT2AK6K1GS4AMTM8YMTSH3KCVNS7, 3650720
31877, 1007490800, SP25344BKZ51EGQ90D0438MQBT9EH92HWGMJ4617K, 2257780
31877, 4191000000, SP2MKG2PRWF159EJ5BCVS3WS9KVHQVX385CGRB381, 9392002
31877, 4701429499, SPD6MWFRND2Z015YEER9KWPW2WGPAEWK9PYKPHFK, 10535871
31877, 4038858600, SP363SW1P5ZW7E4G9T2BSM27A0MB7CSBRPNRNPSQD, 9051054
31877, 1200000000, SPZWKC7GN140C3GVPXHW4JXT2CD51HAFQRJ63MNK, 2689192
31877, 762353252, SP328YDZCWYGN7865XXCTR4MHRAT7AK6CJ9EYENAK, 1708428
31877, 99913600, SP1T2SV6451HSZPJH9YBFWDM69ZPEVXM86HM597XJ, 223906
31877, 319320400, SP31P2CS2FTE5QHZC2PHM0NA4DWC8NN4VR5G9EC58, 715595
31877, 890000000, SPDMR92YNHQGXFKHZRVNH6JHNT1YMTXV5CY5148S, 1994484
31877, 75655771987, SP2NGSDATV6J1WYQKQDFVEKJFYATWF8R18DRANAAJ, 169544054
31877, 200000000, SP2MAGHWK255EXCQ2ZSVBT31Z3CH702N6N6WSHX9G, 448199
31877, 790769854, SP2D71SFBCAX1VE664GKQP2Y7YMRDW6YJGVQVXB1T, 1772110
31877, 353064873, SP3PC8FC87VT7XD6RPPAKGTB3D6MPSTED7GE3DC5H, 791216
31877, 12000000000, SP19SEQ9TX2KT2SR6KVTZ2WT67FTXTWEMW611E98D, 26891916
31877, 1300000000, SP2A54X7G1JXYK5VQN4C5KHDHJV8RFJ9RJTSCVZGW, 2913291
31877, 419377867, SP398G10ZQ4Y7E1TEJARVMTMW971RNPRSMH5Y2CC2, 939823
31877, 238000000, SP34N3FF1DFSJ9H9W3DHCNS9XH29MA6TXADJ5XK1Z, 533356
31877, 8569542543, SPDPK90G0EY4ADP5P5Y1Z9MTZPASQZJ8VMVAGKA3, 19204285
31877, 474000000, SP3CP1DD0BH9EA9PX08DWBAYV9RCEH2R0PDM90TNT, 1062231
31877, 10011213004, SP1VM1T9GAHR8W469SG59Z7ZY63CQDXN92W45A7GV, 22435058
31877, 2777777780, SP5MH8XDDB4DP0EH5P0YB3MEGVGQTNCJWC8BZHJX, 6224981
31877, 5500000000, SPDR2VQWVZY7M1BMQ98Q815DSG75NNCPEC2XEKJQ, 12325461
31877, 135864000, SP1FZEDKMD9736NAWS1V6Z33KBKKY4WN9JHJXCQX6, 304470
31877, 10011099801, SPPQGH7QA834ZYNWJYARDYK2ADPG4PS6JRN02X16, 22434804
31877, 70080000, SP3522EFPGWE6Z10A18Z7HZZNS1CNNEDF8HYAMWNQ, 157049
31876, 514011499, SP1D0JZJJ2WN02T4CG5VCH5HDWN9AHV9MFRZF1EDB, 1151896
31876, 18000000000, SP3AEM26JN09V9PKBWN23XF6T7KVGQQSRTSXPFQ3K, 40337874
31876, 6100000000, SP3ZQXZ6MZD3FPPFTQ9V04P715572SCKXF78XGGBH, 13670057
31876, 10960854919, SP2Q6VFBNKNER27VSRWNWQAVT9AG9AQFEX8QBF7D0, 24563199
31876, 14606608336, SPW5PT8HV1BW8YKXR1RFA97BHAJ3KF2ETACT4ZF1, 32733307
31876, 690000000, SP1ND85KBQ2864904CCDWZ0DRQAPKB4C1RRNNC6KN, 1546285
31876, 465000000, SP3HGJHZA26QKAH0F6R7XKAQ38P866Y6830H2F03F, 1042062
31876, 50000000, SP3Y2B5A919GEGMKMFY5HVP28302RQZAVYGQHSGXF, 112050
31876, 131433783767, SP5RWG04BKT7M4FZQHJNKQ9HZH0FK7YQKADVMQ5P, 294542187
31876, 2600000000, SPQGDR03N7JG8PHZRPNEJDFGMBYPZKK2T9QCEJPR, 5826582
31876, 400000000, SP12AJVMZYZQEV0MRT25SWDSG244BWFK10YMBN7DY, 896397
31876, 6915804571, SP14E544B2FY8BSKTV5V7W8NCRYX2B7NXRQ7B7NJ9, 15498270
31876, 802000000, SPEM57TP3NDA4AJWD4DADY5RMH4DTW223ECAE8XX, 1797276
31875, 142905195, SP3QQ9SFYVVB31JKSNHMZ8YWZNE1KQDMNX6K5XP9F, 320250
31875, 2350000000, SP31SXJHBV3YN94HQX7NR7TV9RBM8NSNYAGXG9R6X, 5266334
31875, 1200000000, SPM0GY8Z4NYTNB7DZH164FZ4P83CCNXSGD79CFX5, 2689192
31875, 4289022600, SP1A2VA8BMXJP5X20576TQKGZ69JDAHZ5TA280QRN, 9611670
31875, 1001000000, SP3GJAHBDCGC1WF2VYG3Z631EV2Y5MCG2Z3DG2PC, 2243234
31874, 699827201, SP15JBFGB9JG5H3H58N730ASP137ZPNCVWPH5KFDD, 1568308
31874, 2665000000, SP577ZEF98DA5R0VNMF5NNV91HY655C3YK4Z3XY1, 5972246
31874, 1500000000, SPWE4ZR7WHPG80DZ49RBPWMYK9Q8VCJW6PV8XDNQ, 3361489
31874, 999913601, SP24AH629ASMM2YQJ6GEKTGQF04FQ8QX439S0T4QY, 2240799
31874, 2855346, SP3RBN4KZAQCTCBF3A8BEEX7AKSK09K5JR1GEV9TW, 6399
31874, 10000000000, SP3NYWC8VD73RCF5XPBDYZ8REHTSTRJSC4ZC50TS2, 22409930
31874, 899913600, SP2MSKMDG9SP540SVVDAZ6XJASRQNAHFD7R8ZE6C9, 2016700
31874, 100000000, SP1DDAHJXNZ5CZM3MH02VR0K9CQHT0STV0HPDTW6S, 224099
31874, 6133000000, SP2B3CVHPVWAPDGE7ZF4329QY2RNJC2W88WVN95P7, 13744010
31874, 899913600, SP16WXBH9DFMP0FDGWBZ1MCE89XNZG637PSEVBKH7, 2016700
31874, 300000000, SP2CR3AJ2MNQKG708PJ6K9G13W34NM2N66P1WDJCD, 672298
31874, 940000000, SP3V8YRS1KED7VKNB9N93FFYYZWNZ5GT1BD2PDJW5, 2106533
31874, 478986041, SP10GH0ED2YA6AN2BT94N75KMVJAC3DGARD5W4HQM, 1073404
31874, 10000000000, SP1293BDR2HFT5SS1MET8Y1QNCAPM2Q171C0H1GP4, 22409930
31873, 10000000000, SP2ECDCY4MQ36SGA8K6FP2AXQ45GCAD0KJ61VR4V6, 22409930
31873, 101431003, SP14E7SG6ET2PPYB43Q6KMXCYFAWS4Q4EHDBRJ3JX, 227306
31873, 100000000, SPK89WAW8NGX7JYXHRYJVCDBVZXNSJVF0YSP8035, 224099
31873, 50000000, SP3ANB7VV0FWVHK6YYMDKR0K13D0RS5Y7AZRF59CY, 112050
31873, 1000000000, SP1GWJCXF5EHAKBYXC6Q06SDDC7D3PJ5KTX64XDQK, 2240993
31873, 112034100, SPZWN809HND1QNX76H5KEGQ3NPE4H9FYAKV4529H, 251068
31873, 65000000, SP0DX2BGGHBW2T0EFPAJAQKMRJRT19VZ1B1RFC5J, 145665
31871, 213816829, SP3W58EX72XE1P83BC8KY16DQGCAVRYTWXA8BEJ97, 479162
31871, 62600000, SP3W2YT1DE2XPRB6HT5GJX0GV2KK6CDB0V2D982WS, 140286
31871, 1000000000, SP2FCCA7EACJN5RNHJJCEKX0ZSP2G9KKGRDZGHNXA, 2240993
31871, 90000000, SP39Y9XN64HY0NZ6JRJ23PP69XTH3JQ9BHRQTF4XN, 201689
31871, 98000000, SP1RJHCH7SDMDDKRAA3066SGPN5YDXMWM63RSC0GK, 219617
31871, 10001000000, SP3ZJDWDGPMRX0DZEFX38DF5K7RZS5TP06AHWYZCH, 22412171
31871, 2024322621, SP3J4VWZJZ32GZCFPXY2GP2XPS6TQBYQ57EE8EEBC, 4536493
31871, 1144000000, SPQ77MRW36WA4K26V4AGXYDH42KXTGZ0Z021YQ1G, 2563696
31871, 900119000, SP110TAR7RZE8ZTHMTMZYN76KT4440CS1KADFCG2B, 2017160
31871, 4006992091, SP2052DB94HVS84BJ0C4JW5RSD7WXGJWFRZC0MQBF, 8979641
31871, 797112600, SP2G7T402CH9CM9NSWN4C5F5D7N7A0X7QSTQX5M4D, 1786324
31867, 1234000000, SP1436K3A0WJA3FF924WRSTGEQFYRQZ06BJS9GPE0, 2765385
31867, 320000000, SP1MMPE32750H0YJZYF6E7P6393QWHPGN6HX7Y5NY, 717118
31867, 392921800, SP1FAEF7P8AMFB69WC53YV6SPHZ763WZDF8B42SWD, 880535
31867, 1000000000, SP1E4798MP7RNHPVSBM954MSS5EJNM1AC3R53DC31, 2240993
31866, 1870574332, SP1FQ0447Y6E26TP1MZ629PVPDP0YQTQ3Z3Z0TNET, 4191944
31865, 282000000000, SPD37TP58PBP2A31BGTSZJKH2P9456249QCV4E9E, 631960021
31865, 12171800744, SP1E2X629S0HHF0CK3JD1JM0MD9T26ND5RDB3BA48, 27276920
31865, 8444543841, SP10J007GGWBFTNNP2FWJQKAGYX01YAPWJKNDC6DC, 18924163
31865, 100000000, SP36XYET7R607JNT2QKT4TD4WRV2S032C54NGW074, 224099
31865, 146500000000, SPVXWPY3CV52WE3QP6K4KMB0CTR5KHQRCDTW411H, 328305472
31865, 7000000000, SP119GBG8NJWRY1JSDRE10QQRCMVQFNDHXH6N1MT8, 15686951
31865, 72000000000, SP3VVK9ZH3BP89YFMHHHVVW420T46NCG1MQT7B2SX, 161351495
31865, 111500000, SP3QCCPSC6TTXBY4ZWFDYJ6R4YE6H8WP5AH7DWEWB, 249871
31863, 350000000, SPA6115JWWJ1M4ZSKS7MA9DT2H5JY8XP8ZRNKM1J, 784348
31863, 500000000, SPDTYPY70YDDSCDC71GTZR5ZA2FB50SN89HWJMXT, 1120496
31863, 63322400, SP187MYHXAQ90FESXYN1JZT9WSGPFTJEBSPD1F7MQ, 141905
31863, 200000000, SP3K7E4990NJ7PNDPHJKECCNEWAGSCMPA43KVXSPK, 448199
31863, 51389541217, SP1B151BKRWR1GRENGR0ACTDCN6EQ66XDB5PYZ9SM, 115163601
31862, 83300000000, SP3ZVY1FJED9TPJNE3TB0CSRT0131H1NQ6D32PKTJ, 186674715
31862, 4323000000, SP3A43EW9CHB1CD03D2J5M53CAN6WS605H493P3GM, 9687813
31862, 7800000000, SPDZB0D7JD4HTQ1GQSN3A12MW5WJNP9MN1P5MCVN, 17479745
31862, 83332000000, SP234AE3DZW6SA9ZB3X3MA924246VKA9W01HK1R31, 186746427
31862, 103000000, SP20TQN8NT410B0RX1QEJNVCTGB3C133QGFSQWFC1, 230822
31862, 25614397070, SPQ2HN9TYF8ZYY9D3G45NGYA9GHA6QZHQ8AXF5QM, 57401684
31862, 24000000000, SP3VEXZNRR67NMBE8SCX9B5G87P2YNBW1GXB1VA1N, 53783832
31862, 1499000000, SP2ZRAWGZXYXRKR4QT6NP56JMETFQNEASHBD0AGZV, 3359248
31861, 865453637, SP133KNDMRPNN149DZ3342H3BMM97WXMKFKJCWG7J, 1939476
31861, 15000000000, SP1653EB7EM1Q7CZ1CMC8J0W93SD8HZT4XR9659CF, 33614895
31859, 4195000000, SP2P8F44XMN79VRTMAFATGFM3Z23AAJA41937GPD2, 9400966