ticktocknextblock-btc,236426
the_advisor-btc,231103
0123-btc,174998
jakeblockchain-btc,158093
mpj-btc,126100
nothing-btc,123327
omur-btc,122781
friedger-btc,97437
kriptodede-btc,89306
merrick-btc,84290
tobi-btc,84286
bigrpic-btc,81641
andrzej-btc,74824
ragil-btc,60811
orkut-btc,60070
goodkitty-btc,57705
rapha-btc,45250
bogachev-btc,43763
kailani-btc,42326
akva-btc,42108
tvq-btc,33928
mirlo-btc,32400
kaylee-btc,31472
mima-btc,29520
thedoc-btc,28067
aazei-btc,25822
godfreddonkor-btc,21852
nft_huntsman-btc,18046
djabdjab-btc,16057
fred-dog-btc,15762
0xloc-btc,13760
unclemantis-btc,13686
faris-btc,12643
aloysious-btc,11791
bradbaker-btc,9934
haka-btc,9702
blem-btc,7223
cargocult-btc,6285
closed-btc,4799
drewfalkman-btc,4348
zeroauthority-btc,4172
whoabuddy-btc,3265
axopoa-stx,2563
isiah-btc,2353
dan-btc,2300
shankar-btc,2162
apples-btc,1662
emrealtnk-btc,1658
kickstarter-btc,1501
workin-btc,1355
spartan-btc,1282
jacobryan-btc,1092
mattpnw-btc,1038
harini-btc,474
mariaverse-btc,400
juice-btc,395
jasper-btc,354
incite-btc,313
harounkola-btc,181
jackbinswitch-btc,111
peters-btc,98
dns-btc,26
mashpotatoes-btc,25
cmb-btc,10
naturalrights-btc,4
wilsonbright-btc,0
Treasury,0
binary-btc,0
ovie-btc,0
cirro-btc,0