ticktocknextblock-btc,430420
nothing-btc,285155
jakeblockchain-btc,278713
mpj-btc,275902
omur-btc,250046
0123-btc,222199
the_advisor-btc,218594
merrick-btc,215613
friedger-btc,172794
andrzej-btc,162309
kriptodede-btc,162282
tobi-btc,133164
goodkitty-btc,126744
rapha-btc,104421
bigrpic-btc,104408
kaylee-btc,64135
akva-btc,63646
mima-btc,63353
0xloc-btc,57124
faris-btc,47692
djabdjab-btc,45073
godfreddonkor-btc,41552
mirlo-btc,37763
haka-btc,36612
nft_huntsman-btc,30253
blem-btc,30052
aazei-btc,22869
bogachev-btc,22090
ragil-btc,21189
closed-btc,19964
fred-dog-btc,19151
unclemantis-btc,17438
zeroauthority-btc,17359
drewfalkman-btc,17347
aloysious-btc,14153
whoabuddy-btc,14065
bradbaker-btc,11023
axopoa-stx,10662
dan-btc,9570
shankar-btc,8996
apples-btc,6915
emrealtnk-btc,6899
kickstarter-btc,6244
isiah-btc,6087
workin-btc,5396
spartan-btc,5333
mattpnw-btc,4320
jacobryan-btc,3784
harini-btc,1975
mariaverse-btc,1664
jasper-btc,1476
incite-btc,1306
harounkola-btc,757
tvq-btc,688
peters-btc,409
dns-btc,109
mashpotatoes-btc,106
cmb-btc,44
naturalrights-btc,20
wilsonbright-btc,0
Treasury,0
binary-btc,0
juice-btc,0
cargocult-btc,0
ovie-btc,0
cirro-btc,0