the_advisor-btc,244547
ticktocknextblock-btc,224831
jakeblockchain-btc,162291
0123-btc,162048
ragil-btc,125249
mpj-btc,124643
nothing-btc,117591
omur-btc,114509
kriptodede-btc,89155
friedger-btc,88325
tobi-btc,86019
bigrpic-btc,85490
andrzej-btc,77088
merrick-btc,74883
orkut-btc,56103
goodkitty-btc,50294
kaylee-btc,50223
rapha-btc,39438
bogachev-btc,38142
kailani-btc,36890
akva-btc,36715
thedoc-btc,35929
tvq-btc,29571
mirlo-btc,28239
mima-btc,25728
godfreddonkor-btc,25396
aazei-btc,22505
unclemantis-btc,16241
nft_huntsman-btc,15729
djabdjab-btc,14021
fred-dog-btc,13738
0xloc-btc,11993
faris-btc,11019
aloysious-btc,10467
bradbaker-btc,8658
haka-btc,8456
blem-btc,6296
cargocult-btc,5477
closed-btc,4182
drewfalkman-btc,3789
zeroauthority-btc,3636
whoabuddy-btc,2946
isiah-btc,2496
axopoa-stx,2233
dan-btc,2004
shankar-btc,1884
apples-btc,1448
emrealtnk-btc,1445
kickstarter-btc,1308
workin-btc,1181
spartan-btc,1117
jacobryan-btc,952
mattpnw-btc,905
harini-btc,413
mariaverse-btc,348
juice-btc,344
jasper-btc,309
incite-btc,273
harounkola-btc,158
sandrabubbles-btc,134
jackbinswitch-btc,126
peters-btc,85
dns-btc,22
mashpotatoes-btc,22
cmb-btc,9
naturalrights-btc,4
wilsonbright-btc,0
Treasury,0
binary-btc,0
ovie-btc,0
cirro-btc,0